%YAML 1.1
%TAG !u! tag:unity3d.com,2011:
--- !u!74 &7400000
AnimationClip:
  m_ObjectHideFlags: 0
  m_CorrespondingSourceObject: {fileID: 0}
  m_PrefabInstance: {fileID: 0}
  m_PrefabAsset: {fileID: 0}
  m_Name: coin_to_spin_anim
  serializedVersion: 6
  m_Legacy: 0
  m_Compressed: 0
  m_UseHighQualityCurve: 1
  m_RotationCurves: []
  m_CompressedRotationCurves: []
  m_EulerCurves: []
  m_PositionCurves: []
  m_ScaleCurves: []
  m_FloatCurves: []
  m_PPtrCurves:
  - curve:
    - time: 0
      value: {fileID: 21300000, guid: b9dbf7526be81844cbed1f8c33d07ad5, type: 3}
    - time: 0.2
      value: {fileID: 21300000, guid: 59acd929e7780ea43a8b1ceeffa032ca, type: 3}
    - time: 0.4
      value: {fileID: 21300000, guid: 3c85160b2de813847bc995941e0f7f68, type: 3}
    - time: 0.6
      value: {fileID: 21300000, guid: 7587a904c11f4254ab3b546e062e11fb, type: 3}
    - time: 0.8
      value: {fileID: 21300000, guid: ac6228f5a9ff14447b631f1ad96174e8, type: 3}
    - time: 1
      value: {fileID: 21300000, guid: cf0edee4311c0d741b4393e88162fb88, type: 3}
    attribute: m_Sprite
    path: 
    classID: 114
    script: {fileID: 11500000, guid: fe87c0e1cc204ed48ad3b37840f39efc, type: 3}
  m_SampleRate: 60
  m_WrapMode: 0
  m_Bounds:
    m_Center: {x: 0, y: 0, z: 0}
    m_Extent: {x: 0, y: 0, z: 0}
  m_ClipBindingConstant:
    genericBindings:
    - serializedVersion: 2
      path: 0
      attribute: 2015549526
      script: {fileID: 11500000, guid: fe87c0e1cc204ed48ad3b37840f39efc, type: 3}
      typeID: 114
      customType: 0
      isPPtrCurve: 1
    pptrCurveMapping:
    - {fileID: 21300000, guid: b9dbf7526be81844cbed1f8c33d07ad5, type: 3}
    - {fileID: 21300000, guid: 59acd929e7780ea43a8b1ceeffa032ca, type: 3}
    - {fileID: 21300000, guid: 3c85160b2de813847bc995941e0f7f68, type: 3}
    - {fileID: 21300000, guid: 7587a904c11f4254ab3b546e062e11fb, type: 3}
    - {fileID: 21300000, guid: ac6228f5a9ff14447b631f1ad96174e8, type: 3}
    - {fileID: 21300000, guid: cf0edee4311c0d741b4393e88162fb88, type: 3}
  m_AnimationClipSettings:
    serializedVersion: 2
    m_AdditiveReferencePoseClip: {fileID: 0}
    m_AdditiveReferencePoseTime: 0
    m_StartTime: 0
    m_StopTime: 1.0166667
    m_OrientationOffsetY: 0
    m_Level: 0
    m_CycleOffset: 0
    m_HasAdditiveReferencePose: 0
    m_LoopTime: 1
    m_LoopBlend: 0
    m_LoopBlendOrientation: 0
    m_LoopBlendPositionY: 0
    m_LoopBlendPositionXZ: 0
    m_KeepOriginalOrientation: 0
    m_KeepOriginalPositionY: 1
    m_KeepOriginalPositionXZ: 0
    m_HeightFromFeet: 0
    m_Mirror: 0
  m_EditorCurves: []
  m_EulerEditorCurves: []
  m_HasGenericRootTransform: 0
  m_HasMotionFloatCurves: 0
  m_Events: []
